<svg width="32" height="33" viewBox="0 0 32 33" fill="none" xmlns="http://www.w3.org/2000/svg">
<ellipse cx="16.1437" cy="16.7005" rx="15.4889" ry="15.4802" fill="#B41A1A"/>
<ellipse cx="15.4981" cy="16.0555" rx="15.4889" ry="15.4802" fill="#F01F1F"/>
<path fill-rule="evenodd" clip-rule="evenodd" d="M21.6008 12.1206L18.8627 9.38408L15.2119 13.0328L11.5612 9.38406L8.82309 12.1206L12.4739 15.7693L8.82309 19.418L11.5612 22.1546L15.2119 18.5059L18.8627 22.1546L21.6008 19.418L17.95 15.7693L21.6008 12.1206Z" fill="#FEF5F9"/>
</svg>
