<svg width="66" height="66" viewBox="0 0 66 66" fill="none" xmlns="http://www.w3.org/2000/svg">
<path d="M20.7264 43.9839V26.2637H16.6301V21.7219H26.3791V43.9839H20.7264Z" fill="white"/>
<path d="M47.6242 27.4699C47.6226 28.4194 47.3614 29.3503 46.8688 30.1621C46.3763 30.9738 45.6711 31.6354 44.8297 32.0753C45.981 32.5026 46.9761 33.2681 47.6845 34.2712C48.3928 35.2744 48.7812 36.4683 48.7987 37.6961C48.7987 41.697 45.242 44.2383 39.6862 44.2383C34.1305 44.2383 30.5737 41.7288 30.5737 37.7916C30.6095 36.5215 31.0335 35.2927 31.7886 34.2708C32.5437 33.2488 33.5937 32.4826 34.7973 32.0753C33.9059 31.628 33.1503 30.9505 32.6086 30.1131C32.067 29.2756 31.7589 28.3087 31.7164 27.3122C31.7164 23.7555 34.8291 21.5005 39.6558 21.5005C44.5433 21.499 47.6242 23.8177 47.6242 27.4699ZM35.9082 37.2203C35.9082 39.1006 37.2418 40.1421 39.6877 40.1421C42.1336 40.1421 43.499 39.1296 43.499 37.2203C43.499 35.379 42.1336 34.3274 39.6877 34.3274C37.2418 34.3274 35.9053 35.3775 35.9053 37.2188L35.9082 37.2203ZM36.4867 27.7881C36.4867 29.3792 37.6294 30.2658 39.6935 30.2658C41.7575 30.2658 42.9002 29.3763 42.9002 27.7881C42.9002 26.1377 41.7575 25.2164 39.6935 25.2164C37.6294 25.2164 36.4781 26.1363 36.4781 27.791L36.4867 27.7881Z" fill="white"/>
<path d="M58.2063 24.2343C60.1498 29.9812 60.0926 36.2164 58.044 41.9266C55.9954 47.6369 52.0758 52.4864 46.9223 55.6872C41.7688 58.8879 35.6843 60.2517 29.6576 59.5568C23.6309 58.862 18.0164 56.1493 13.7265 51.8598C9.43659 47.5703 6.72347 41.956 6.0281 35.9294C5.33273 29.9027 6.69597 23.8181 9.89627 18.6643C13.0966 13.5105 17.9458 9.59053 23.6559 7.54144C29.3659 5.49236 35.6012 5.43463 41.3482 7.37762V1.38941C34.4093 -0.510034 27.037 -0.0617528 20.3793 2.66445C13.7217 5.39065 8.15227 10.2418 4.53838 16.4624C0.924487 22.6831 -0.531074 29.9241 0.398343 37.058C1.32776 44.1919 4.58999 50.8183 9.67706 55.9054C14.7641 60.9925 21.3905 64.2547 28.5245 65.1841C35.6584 66.1136 42.8994 64.658 49.1201 61.0441C55.3407 57.4302 60.1918 51.8608 62.918 45.2032C65.6442 38.5455 66.0925 31.1732 64.1931 24.2343H58.2063Z" fill="white"/>
<path d="M56.5777 8.98748V2.73022H52.0778V8.98748H45.8582V13.4873H52.0778V19.7446H56.5777V13.4873H62.8349V8.98748H56.5777Z" fill="white"/>
</svg>
